<svg width="124" height="124" viewBox="0 0 124 124" fill="none" xmlns="http://www.w3.org/2000/svg">
<g filter="url(#filter0_d_109_3136)">
<rect x="35.5" y="31.5" width="53" height="53" stroke="#DFDFDF"/>
</g>
<path d="M49 71.82H75V45.82H49V71.82Z" fill="#6C777C"/>
<defs>
<filter id="filter0_d_109_3136" x="0" y="0" width="124" height="124" filterUnits="userSpaceOnUse" color-interpolation-filters="sRGB">
<feFlood flood-opacity="0" result="BackgroundImageFix"/>
<feColorMatrix in="SourceAlpha" type="matrix" values="0 0 0 0 0 0 0 0 0 0 0 0 0 0 0 0 0 0 127 0" result="hardAlpha"/>
<feOffset dy="4"/>
<feGaussianBlur stdDeviation="17.5"/>
<feColorMatrix type="matrix" values="0 0 0 0 0.662745 0 0 0 0 0.662745 0 0 0 0 0.662745 0 0 0 0.2 0"/>
<feBlend mode="normal" in2="BackgroundImageFix" result="effect1_dropShadow_109_3136"/>
<feBlend mode="normal" in="SourceGraphic" in2="effect1_dropShadow_109_3136" result="shape"/>
</filter>
</defs>
</svg>

