<svg width="206" height="48" viewBox="0 0 206 48" fill="none" xmlns="http://www.w3.org/2000/svg">
<rect y="47.5283" width="15.4146" height="15.4146" fill="#F4F4F4"/>
<rect width="15.4146" height="15.4146" fill="#F4F4F4"/>
<rect x="47.5286" y="47.5283" width="15.4146" height="15.4146" fill="#F4F4F4"/>
<rect x="47.5286" width="15.4146" height="15.4146" fill="white"/>
<rect x="95.0569" y="47.5283" width="15.4146" height="15.4146" fill="white"/>
<rect x="95.0569" width="15.4146" height="15.4146" fill="#F4F4F4"/>
<rect x="142.585" y="47.5283" width="15.4146" height="15.4146" fill="#F4F4F4"/>
<rect x="142.585" width="15.4146" height="15.4146" fill="white"/>
<rect x="190.114" y="47.5283" width="15.4146" height="15.4146" fill="white"/>
<rect x="190.114" width="15.4146" height="15.4146" fill="#F4F4F4"/>
</svg>
